<?xml version="1.0" encoding="UTF-8"?>
<svg width="81px" height="60px" viewBox="0 0 81 60" version="1.1" xmlns="http://www.w3.org/2000/svg" xmlns:xlink="http://www.w3.org/1999/xlink">
    <title>Group 8</title>
    <g id="Page-1" stroke="none" stroke-width="1" fill="none" fill-rule="evenodd">
        <g id="01-Home" transform="translate(-244.000000, -654.000000)" fill="#000000" fill-rule="nonzero">
            <g id="Group-8" transform="translate(208.000000, 620.000000)">
                <g id="OMR_Logo_svg" transform="translate(36.000000, 34.000000)">
                    <path d="M76.9884342,10 C80.8179251,10 80.9844247,13.6892493 80.9916638,14.0100536 L80.9919929,42.9435484 L81,42.9354839 C81,46.7924264 77.3370087,46.9601195 77.0184877,46.9674105 L73.8656584,46.9677419 L64.0569395,60 L64.0569395,46.9758065 L4.00355872,46.9758065 C0.17406777,46.9758065 0.00756816393,43.2865571 0.000329050606,42.9657528 L0,14.0322581 C0,10.1753156 3.66299134,10.0076224 3.98151233,10.0003314 Z M16.8755437,17.0013953 C13.9754534,16.967786 11.19169,18.1524192 9.18882504,20.2724858 C7.11678818,22.3071425 5.96395365,25.1135593 6.00085964,28.0331482 C5.97391691,30.9300107 7.12324699,33.7113696 9.18073376,35.7283888 C11.1894603,37.8447692 13.9739868,39.0284812 16.8755437,38.9994793 C19.7686907,39.0217047 22.5431575,37.8385368 24.5460797,35.7283888 C26.6437359,33.7041261 27.8158468,30.8906222 27.7825928,27.9595487 C27.8114679,25.1441181 26.729209,22.4380784 24.783672,20.4357499 L24.5460797,20.1988863 C22.5340336,18.110896 19.7589724,16.9541015 16.8755437,17.0013953 Z M73.8300831,17.189483 L55.3172281,17.189483 L55.3172281,21.523678 L64.0962699,21.523678 L58.0763555,27.7305723 L67.7858948,38.8032139 L74,38.8032139 L64.3228258,27.7223946 L73.8300831,17.189483 Z M52.711835,17.189483 L41.7481469,30.8217529 L30.7763675,17.189483 L30.7763675,38.7950362 L35.283212,38.7950362 L35.283212,29.7014044 L41.7562382,38.4270385 L48.2292644,29.7014044 L48.2049905,38.770503 L52.711835,38.770503 L52.711835,17.189483 Z M16.8795893,21.3915664 C18.6115247,21.3915664 20.2712259,22.0930398 21.4875748,23.3391332 C22.7371664,24.5552331 23.4340556,26.2391252 23.4133001,27.9922596 L23.3971176,27.9922596 C23.4230434,29.7487949 22.7255076,31.4372116 21.4713923,32.6535636 C20.2656731,33.9059622 18.6043817,34.6035914 16.8755437,34.5835071 C13.2769381,34.5789946 10.3620583,31.6293138 10.362061,27.9922596 C10.3390041,26.2419364 11.0295855,24.5591446 12.2716038,23.3391332 C13.4879527,22.0930398 15.147654,21.3915664 16.8795893,21.3915664 Z" id="Combined-Shape"></path>
                </g>
            </g>
        </g>
    </g>
</svg>