<?xml version="1.0" encoding="utf-8"?>
<!-- Generator: Adobe Illustrator 26.2.1, SVG Export Plug-In . SVG Version: 6.00 Build 0)  -->
<svg version="1.1" id="Ebene_1" xmlns="http://www.w3.org/2000/svg" xmlns:xlink="http://www.w3.org/1999/xlink" x="0px" y="0px"
	 viewBox="0 0 404 160" style="enable-background:new 0 0 404 160;" xml:space="preserve">
<style type="text/css">
	.st0{clip-path:url(#SVGID_00000128457018964789365550000008392303814269772430_);fill:#1D1D1B;}
	.st1{clip-path:url(#SVGID_00000123400836220491388810000007077597310552951226_);fill:none;stroke:#1D1D1B;stroke-width:1.543;}
	.st2{enable-background:new    ;}
	.st3{fill:#1D1D1B;}
</style>
<g>
	<g>
		<defs>
			<rect id="SVGID_1_" y="0.1" width="404" height="177.8"/>
		</defs>
		<clipPath id="SVGID_00000044159051806610649560000002800870825635524251_">
			<use xlink:href="#SVGID_1_"  style="overflow:visible;"/>
		</clipPath>
		<path style="clip-path:url(#SVGID_00000044159051806610649560000002800870825635524251_);fill:#1D1D1B;" d="M138.6,70.4v-0.3
			c0-18.6-14.2-25.9-37-30.9c-13.7-3.1-17.1-5.1-17.1-9.6v-0.3c0-3.5,3.3-6.4,9.9-6.4c8.8,0,18.7,3.4,27.8,9.8L136,13.3
			C125.2,4.7,112,0.1,95.2,0.1c-23.8,0-38.4,13.3-38.4,31.7v0.4c0,20.4,16.3,26.4,37.4,31.2c13.5,3.1,16.7,5.4,16.7,9.5v0.3
			c0,4.2-4,6.8-11.3,6.8c-11.5,0-22.4-4.1-32.2-11.9L52.1,86.3c12.2,10.9,28.9,16.4,46.4,16.4C122.6,102.7,138.6,90.7,138.6,70.4
			 M208.2,38.3c0,7.8-6,12.9-15.7,12.9h-13V24.9h12.9c9.9,0,15.9,4.5,15.9,13L208.2,38.3L208.2,38.3z M235.7,37v-0.3
			c0-22-16.2-34.9-41.2-34.9H152V101h27.5V72.7h13.6C217.7,72.7,235.7,60.4,235.7,37 M351.9,101V1.8l-52.7,41.1L246.5,1.8V101h26.9
			V51.4l25.8,24.5l25.4-24.2v49.2h27.3V101z"/>
	</g>
</g>
<g>
	<g>
		<defs>
			<rect id="SVGID_00000053531123540946796070000000245997462898708922_" y="107.4" width="404" height="70.6"/>
		</defs>
		<clipPath id="SVGID_00000077293451999130160550000003867712082913963186_">
			<use xlink:href="#SVGID_00000053531123540946796070000000245997462898708922_"  style="overflow:visible;"/>
		</clipPath>
		
			<rect x="3.6" y="114.6" style="clip-path:url(#SVGID_00000077293451999130160550000003867712082913963186_);fill:none;stroke:#1D1D1B;stroke-width:1.543;" width="396.7" height="42.6"/>
	</g>
</g>
<g class="st2">
	<path class="st3" d="M15.9,144.8l1-1.9c1.7,1.7,4.7,2.9,7.8,2.9c4.4,0,6.3-1.9,6.3-4.2c0-6.5-14.5-2.5-14.5-11.2
		c0-3.5,2.7-6.5,8.7-6.5c2.7,0,5.4,0.8,7.3,2.1l-0.8,2c-2-1.3-4.4-2-6.5-2c-4.3,0-6.2,1.9-6.2,4.3c0,6.5,14.5,2.6,14.5,11.2
		c0,3.5-2.8,6.4-8.8,6.4C21.1,147.9,17.6,146.6,15.9,144.8z"/>
	<path class="st3" d="M56.3,138.8c0,5.4-3.8,9-8.8,9c-2.8,0-5.3-1.2-6.7-3.5v9.9h-2.4v-24.3h2.3v3.5c1.4-2.4,3.9-3.6,6.8-3.6
		C52.5,129.8,56.3,133.4,56.3,138.8z M53.9,138.8c0-4.1-2.9-6.9-6.6-6.9c-3.8,0-6.6,2.8-6.6,6.9c0,4.1,2.8,6.9,6.6,6.9
		C51.1,145.7,53.9,142.9,53.9,138.8z"/>
	<path class="st3" d="M59.4,138.8c0-5.3,3.8-9,9-9c5.2,0,9,3.7,9,9s-3.8,9-9,9C63.3,147.8,59.4,144.1,59.4,138.8z M75,138.8
		c0-4.1-2.8-6.9-6.6-6.9c-3.8,0-6.6,2.8-6.6,6.9c0,4.1,2.8,6.9,6.6,6.9C72.2,145.7,75,142.9,75,138.8z"/>
</g>
<g class="st2">
	<path class="st3" d="M91.2,129.8v2.3c-0.2,0-0.4,0-0.6,0c-3.7,0-6,2.4-6,6.5v9h-2.4v-17.7h2.3v3.5C85.7,131,88,129.8,91.2,129.8z"
		/>
</g>
<g class="st2">
	<path class="st3" d="M105.7,146.6c-0.9,0.8-2.4,1.2-3.7,1.2c-3.3,0-5.2-1.9-5.2-5.2V132h-3.2v-2h3.2v-3.9h2.4v3.9h5.4v2h-5.4v10.6
		c0,2.1,1.1,3.2,3.1,3.2c1,0,2-0.3,2.6-0.9L105.7,146.6z"/>
	<path class="st3" d="M107.6,145.6l1.1-1.9c1.4,1.1,3.8,2,6.3,2c3.4,0,4.8-1.1,4.8-2.9c0-4.6-11.5-1-11.5-8c0-2.9,2.5-5.1,7-5.1
		c2.3,0,4.8,0.6,6.3,1.7l-1,1.9c-1.6-1.1-3.4-1.5-5.2-1.5c-3.2,0-4.6,1.2-4.6,2.9c0,4.8,11.5,1.2,11.5,8c0,3.1-2.7,5.1-7.3,5.1
		C111.9,147.8,109.1,146.9,107.6,145.6z"/>
	<path class="st3" d="M160.4,124.1v23.6H158v-18.9l-9.3,15.9h-1.2l-9.3-15.8v18.8h-2.4v-23.6h2.1l10.3,17.5l10.2-17.5H160.4z"/>
	<path class="st3" d="M183.1,139.5h-14.8c0.3,3.7,3.1,6.2,7,6.2c2.2,0,4.1-0.8,5.4-2.3l1.3,1.6c-1.6,1.9-4,2.9-6.8,2.9
		c-5.5,0-9.3-3.8-9.3-9s3.7-9,8.7-9c5,0,8.6,3.7,8.6,9C183.1,139,183.1,139.3,183.1,139.5z M168.2,137.8h12.6
		c-0.3-3.5-2.8-5.9-6.3-5.9C171.1,131.9,168.5,134.3,168.2,137.8z"/>
	<path class="st3" d="M204.2,122.6v25h-2.3v-3.5c-1.5,2.4-3.9,3.7-6.8,3.7c-5.1,0-8.8-3.7-8.8-9c0-5.4,3.8-9,8.8-9
		c2.8,0,5.3,1.2,6.7,3.5v-10.7H204.2z M201.8,138.8c0-4.1-2.8-6.9-6.6-6.9c-3.8,0-6.6,2.8-6.6,6.9c0,4.1,2.8,6.9,6.6,6.9
		C199,145.7,201.8,142.9,201.8,138.8z"/>
	<path class="st3" d="M210.3,124.3c0-0.9,0.8-1.7,1.8-1.7s1.8,0.7,1.8,1.7c0,1-0.7,1.8-1.8,1.8C211.1,126.1,210.3,125.3,210.3,124.3
		z M210.8,129.9h2.4v17.7h-2.4V129.9z"/>
	<path class="st3" d="M233.3,136.7v11H231v-2.8c-1.1,1.8-3.2,2.9-6.1,2.9c-4,0-6.5-2.1-6.5-5.2c0-2.7,1.8-5,6.8-5h5.6v-1.1
		c0-3-1.7-4.7-5-4.7c-2.3,0-4.5,0.8-5.9,2.1l-1.1-1.8c1.8-1.5,4.4-2.4,7.2-2.4C230.7,129.8,233.3,132.1,233.3,136.7z M230.9,142.3
		v-2.9h-5.6c-3.4,0-4.6,1.3-4.6,3.2c0,2.1,1.7,3.3,4.5,3.3C228,146,230,144.7,230.9,142.3z"/>
	<path class="st3" d="M268.9,124.1v23.6h-2.1l-15.2-19.2v19.2h-2.5v-23.6h2.1l15.2,19.2v-19.2H268.9z"/>
	<path class="st3" d="M291.5,139.5h-14.8c0.3,3.7,3.1,6.2,7,6.2c2.2,0,4.1-0.8,5.4-2.3l1.3,1.6c-1.6,1.9-4,2.9-6.8,2.9
		c-5.5,0-9.3-3.8-9.3-9s3.7-9,8.7-9c5,0,8.6,3.7,8.6,9C291.5,139,291.5,139.3,291.5,139.5z M276.6,137.8h12.6
		c-0.3-3.5-2.8-5.9-6.3-5.9C279.5,131.9,276.9,134.3,276.6,137.8z"/>
</g>
<g class="st2">
	<path class="st3" d="M305.7,146.6c-0.9,0.8-2.4,1.2-3.7,1.2c-3.3,0-5.2-1.9-5.2-5.2V132h-3.2v-2h3.2v-3.9h2.4v3.9h5.4v2h-5.4v10.6
		c0,2.1,1.1,3.2,3.1,3.2c1,0,2-0.3,2.6-0.9L305.7,146.6z"/>
</g>
<g class="st2">
	<path class="st3" d="M335.7,129.9l-6.7,17.7h-2.3l-5.6-14.5l-5.6,14.5h-2.3l-6.7-17.7h2.3l5.6,15.1l5.7-15.1h2.1l5.7,15.1l5.6-15.1
		H335.7z"/>
</g>
<g class="st2">
	<path class="st3" d="M337.1,138.8c0-5.3,3.8-9,9-9c5.2,0,9,3.7,9,9s-3.8,9-9,9C341,147.8,337.1,144.1,337.1,138.8z M352.7,138.8
		c0-4.1-2.8-6.9-6.6-6.9c-3.8,0-6.6,2.8-6.6,6.9c0,4.1,2.8,6.9,6.6,6.9C349.9,145.7,352.7,142.9,352.7,138.8z"/>
</g>
<g class="st2">
	<path class="st3" d="M368.9,129.8v2.3c-0.2,0-0.4,0-0.6,0c-3.7,0-6,2.4-6,6.5v9H360v-17.7h2.3v3.5
		C363.4,131,365.7,129.8,368.9,129.8z"/>
</g>
<g class="st2">
	<path class="st3" d="M379.9,138.8l-4.2,3.8v5.1h-2.4v-25h2.4v17l10.6-9.7h3l-7.6,7.2l8.3,10.5H387L379.9,138.8z"/>
</g>
</svg>
